H|^~\&|HIS|MC|LIS|MC|20180812||ORM^O01|HL7MSG0002|P|2.3
PID|||MRN12345^168636490^M11|123456|COLOMA^CRISTIAN|PADILLA|19880724|M|||AVENIDA^SANTA ROSA^326^SANTIAGO|||||||MRN12345^168636490^M11|
PV1||A|CAE^CARDIOLOGÍA||||2323^ALMENDRAS^PABLO|||CAE|||||||||1|||||||||||||||||||||||||20180812114500|
ORC|NV|2018081211450000000
OBR|1|2018081211450000000||27171005^ANALISIS DE ORINA|||20180812114500
