MSH|^~\&|LIS|MC|HIS|MC|20181026085448||ORU^R01|MIRTH|P|2.3|
PID|||MRN12345^168636490^M11|8e85db12-8c19-46b1-a8a4-b1837a39ef5a|PABLO^ALMENDRAS|PADILLA||M||M|AVENIDA^SANTA ROSA^326^SANTIAGO|56||(2)226120083||S||MRN12345001^82439846^M10|SS12345|15260127^STGO|
ORC|NV|2018081211450000001|INF2018081211450000001||||||20180812144500|||HIS
OBR|1|2018081211450000001|INF2018081211450000001|27171005^ANALISIS DE ORINA
OBX|1|ST|27171005^ANALISIS DE ORINA|PROTEINA|1515|MG
